^C:\USERS\USER1\DOCUMENTS\VISUAL STUDIO 2015\PROJECTS\TASK_AL02\TASK_AL02\DEBUG\SOURCE.OBJ
C:\USERS\USER1\DOCUMENTS\VISUAL STUDIO 2015\PROJECTS\TASK_AL02\DEBUG\TASK_AL02.ILK
C:\USERS\USER1\DOCUMENTS\VISUAL STUDIO 2015\PROJECTS\TASK_AL02\DEBUG\TASK_AL02.EXE
C:\USERS\USER1\DOCUMENTS\VISUAL STUDIO 2015\PROJECTS\TASK_AL02\DEBUG\TASK_AL02.PDB
